{
    "key": "group_5ba0a526a4813",
    "title": "Flexibele inhoud",
    "fields": [
        {
            "key": "field_5ba0a58842ee8",
            "label": "Flexibele inhoud",
            "name": "partials",
            "type": "flexible_content",
            "instructions": "Stel een pagina samen met behulp van de onderstaande elementen.",
            "required": 0,
            "conditional_logic": 0,
            "wrapper": {
                "width": "",
                "class": "",
                "id": ""
            },
            "layouts": {
                "5ba0a58d4eb89": {
                    "key": "5ba0a58d4eb89",
                    "name": "services",
                    "label": "Call to Actions",
                    "display": "block",
                    "sub_fields": [
                        {
                            "key": "field_5ba0bdd859783",
                            "label": "Titel",
                            "name": "services_title",
                            "type": "text",
                            "instructions": "Voeg een titel toe aan het element.",
                            "required": 1,
                            "conditional_logic": 0,
                            "wrapper": {
                                "width": "",
                                "class": "",
                                "id": ""
                            },
                            "default_value": "",
                            "placeholder": "Bijvoorbeeld: \"Even snel<br> wat regelen.\"",
                            "prepend": "",
                            "append": "",
                            "maxlength": ""
                        },
                        {
                            "key": "field_5ba0be1a59784",
                            "label": "Call to Actions",
                            "name": "cta",
                            "type": "repeater",
                            "instructions": "Voeg een of meer Call to Actions toe.",
                            "required": 0,
                            "conditional_logic": 0,
                            "wrapper": {
                                "width": "",
                                "class": "",
                                "id": ""
                            },
                            "collapsed": "",
                            "min": 0,
                            "max": 0,
                            "layout": "block",
                            "button_label": "Dienst toevoegen",
                            "sub_fields": [
                                {
                                    "key": "field_5ba0be3a59785",
                                    "label": "Titel",
                                    "name": "title",
                                    "type": "text",
                                    "instructions": "Voeg een titel toe aan de dienst.",
                                    "required": 1,
                                    "conditional_logic": 0,
                                    "wrapper": {
                                        "width": "",
                                        "class": "",
                                        "id": ""
                                    },
                                    "default_value": "",
                                    "placeholder": "Bijvoorbeeld: \"Ik wil een afspraak maken\"",
                                    "prepend": "",
                                    "append": "",
                                    "maxlength": ""
                                },
                                {
                                    "key": "field_5ba0bfba7956c",
                                    "label": "Omschrijving",
                                    "name": "description",
                                    "type": "text",
                                    "instructions": "Voeg een omschrijving toe aan de dienst.",
                                    "required": 1,
                                    "conditional_logic": 0,
                                    "wrapper": {
                                        "width": "",
                                        "class": "",
                                        "id": ""
                                    },
                                    "default_value": "",
                                    "placeholder": "Bijvoorbeeld: \"Ik wil een afspraak maken\"",
                                    "prepend": "",
                                    "append": "",
                                    "maxlength": ""
                                },
                                {
                                    "key": "field_5ba23058be455",
                                    "label": "Naar de flow?",
                                    "name": "link_to_flow",
                                    "type": "true_false",
                                    "instructions": "",
                                    "required": 0,
                                    "conditional_logic": 0,
                                    "wrapper": {
                                        "width": "20",
                                        "class": "",
                                        "id": ""
                                    },
                                    "message": "",
                                    "default_value": 1,
                                    "ui": 0,
                                    "ui_on_text": "",
                                    "ui_off_text": ""
                                },
                                {
                                    "key": "field_5ba229e1951d4",
                                    "label": "CTA intentie",
                                    "name": "flow_intention",
                                    "type": "select",
                                    "instructions": "Reden dat bezoekers de flow bezoeken",
                                    "required": 0,
                                    "conditional_logic": [
                                        [
                                            {
                                                "field": "field_5ba23058be455",
                                                "operator": "==",
                                                "value": "1"
                                            }
                                        ]
                                    ],
                                    "wrapper": {
                                        "width": "40",
                                        "class": "",
                                        "id": ""
                                    },
                                    "choices": {
                                        "appointment": "Afspraak maken",
                                        "estimate": "Offerte Opvragen",
                                        "apkcheck": "APK vervaldatum check"
                                    },
                                    "default_value": [],
                                    "allow_null": 1,
                                    "multiple": 0,
                                    "ui": 0,
                                    "return_format": "value",
                                    "ajax": 0,
                                    "placeholder": ""
                                },
                                {
                                    "key": "field_5ba0beaf59786",
                                    "label": "Link",
                                    "name": "link",
                                    "type": "page_link",
                                    "instructions": "Voeg een link toe aan de dienst.",
                                    "required": 1,
                                    "conditional_logic": [
                                        [
                                            {
                                                "field": "field_5ba23058be455",
                                                "operator": "!=",
                                                "value": "1"
                                            }
                                        ]
                                    ],
                                    "wrapper": {
                                        "width": "40",
                                        "class": "",
                                        "id": ""
                                    },
                                    "post_type": [
                                        "page"
                                    ],
                                    "taxonomy": "",
                                    "allow_null": 0,
                                    "allow_archives": 1,
                                    "multiple": 0
                                },
                                {
                                    "key": "field_5ba0bec559787",
                                    "label": "Icoontje",
                                    "name": "icon",
                                    "type": "select",
                                    "instructions": "Voeg een icoontje toe aan de dienst.",
                                    "required": 1,
                                    "conditional_logic": 0,
                                    "wrapper": {
                                        "width": "40",
                                        "class": "",
                                        "id": ""
                                    },
                                    "choices": {
                                        "calendar": "Kalender",
                                        "calculator": "Rekenmachine",
                                        "car": "Auto"
                                    },
                                    "default_value": [
                                        "car"
                                    ],
                                    "allow_null": 0,
                                    "multiple": 0,
                                    "ui": 0,
                                    "return_format": "value",
                                    "ajax": 0,
                                    "placeholder": ""
                                }
                            ]
                        }
                    ],
                    "min": "",
                    "max": ""
                },
                "layout_5ba0b9095c115": {
                    "key": "layout_5ba0b9095c115",
                    "name": "occasions",
                    "label": "Occasions",
                    "display": "block",
                    "sub_fields": [
                        {
                            "key": "field_5ba0bb03cb0b6",
                            "label": "Titel",
                            "name": "occasions_title",
                            "type": "text",
                            "instructions": "Voeg een titel toe aan het element.",
                            "required": 1,
                            "conditional_logic": 0,
                            "wrapper": {
                                "width": "",
                                "class": "",
                                "id": ""
                            },
                            "default_value": "",
                            "placeholder": "Bijvoorbeeld: \"Zoek de juiste occasion<br> voor jouw auto!\"",
                            "prepend": "",
                            "append": "",
                            "maxlength": ""
                        },
                        {
                            "key": "field_5ba0bb2acb0b7",
                            "label": "Link",
                            "name": "occasions_link",
                            "type": "link",
                            "instructions": "Voeg optioneel een link toe aan het element.",
                            "required": 0,
                            "conditional_logic": 0,
                            "wrapper": {
                                "width": "",
                                "class": "",
                                "id": ""
                            },
                            "return_format": "array"
                        },
                        {
                            "key": "field_5ba0bb45cb0b8",
                            "label": "Afbeelding",
                            "name": "occasions_image",
                            "type": "image",
                            "instructions": "Voeg optioneel een afbeelding toe aan het element.",
                            "required": 0,
                            "conditional_logic": 0,
                            "wrapper": {
                                "width": "",
                                "class": "",
                                "id": ""
                            },
                            "return_format": "array",
                            "preview_size": "thumbnail",
                            "library": "all",
                            "min_width": "",
                            "min_height": "",
                            "min_size": "",
                            "max_width": "",
                            "max_height": "",
                            "max_size": "",
                            "mime_types": ""
                        }
                    ],
                    "min": "",
                    "max": ""
                },
                "layout_5ba0b9ba7c3fb": {
                    "key": "layout_5ba0b9ba7c3fb",
                    "name": "faq",
                    "label": "Veelgestelde vragen",
                    "display": "block",
                    "sub_fields": [],
                    "min": "",
                    "max": ""
                },
                "layout_5ba0b9dacb0cc": {
                    "key": "layout_5ba0b9dacb0cc",
                    "name": "faq",
                    "label": "Veelgestelde vragen",
                    "display": "block",
                    "sub_fields": [
                        {
                            "key": "field_5ba0d8a72ce7e",
                            "label": "Beheerbaar",
                            "name": "",
                            "type": "message",
                            "instructions": "",
                            "required": 0,
                            "conditional_logic": 0,
                            "wrapper": {
                                "width": "",
                                "class": "",
                                "id": ""
                            },
                            "message": "De veelgestelde vragen kunnen <a href=\".\/admin.php?page=theme-general-settings\">hier<\/a> beheerd worden.",
                            "new_lines": "wpautop",
                            "esc_html": 0
                        }
                    ],
                    "min": "",
                    "max": ""
                },
                "layout_5ba0ba4dcb0cd": {
                    "key": "layout_5ba0ba4dcb0cd",
                    "name": "klantvertellen",
                    "label": "Klantvertellen",
                    "display": "block",
                    "sub_fields": [
                        {
                            "key": "field_5ba0d8da2ce7f",
                            "label": "ID",
                            "name": "klantenvertellen_clientid",
                            "type": "text",
                            "instructions": "Vul het ID in van het profiel van Klantenvertellen die getoond mag worden. als je deze leeg laat zal het autovakmeester ID gebruikt worden",
                            "required": 0,
                            "conditional_logic": 0,
                            "wrapper": {
                                "width": "",
                                "class": "",
                                "id": ""
                            },
                            "default_value": "",
                            "placeholder": "Bijvoorbeeld: \"ID01\"",
                            "prepend": "",
                            "append": "",
                            "maxlength": ""
                        }
                    ],
                    "min": "",
                    "max": ""
                },
                "layout_5ba0dba7102a1": {
                    "key": "layout_5ba0dba7102a1",
                    "name": "kickstarter",
                    "label": "Banner",
                    "display": "block",
                    "sub_fields": [],
                    "min": "",
                    "max": ""
                }
            },
            "button_label": "Element toevoegen",
            "min": "",
            "max": ""
        }
    ],
    "location": [
        [
            {
                "param": "page_template",
                "operator": "==",
                "value": "front-page.php"
            }
        ],
        [
            {
                "param": "page_template",
                "operator": "==",
                "value": "page-contact.php"
            }
        ]
    ],
    "menu_order": 1,
    "position": "normal",
    "style": "default",
    "label_placement": "top",
    "instruction_placement": "label",
    "hide_on_screen": "",
    "active": 1,
    "description": "",
    "modified": 1540305812
}